Project 2: Data Mining, Classification, Prediction
…
Introduction

For this project, I used the same data that I used for project 1. I thought it would be more interesting to elaborate on this data that I have already spent some time analyzing rather than starting from scratch. As a refresher, this dataset looks at my Spotify streaming history and compares when I listened to certain songs to the qualities of that song, i.e.the tempo, popularity, instrumentalness, etc. There are 16 variables and 376 observations in this dataset. There is one binary variable, which is the year that the song was streamed (2020 or 2021). The variable second was removed from the pre-existing dataset because it was not useful as all of the observations for that variable were the same.

In the next part of this project, you will see that I trim the dataset down further to only include the variables that indicate different qualities of the songs. I found that a much more interesting study was of how the qualities of songs influence their popularity. I will be performing cluster analysis on these songs based on their qualities and then turning popularity into a binary variable to see whether the qualities of songs can reasonably predict how popular they will be.

library(tidyverse)

project1 <- read_csv("project1.csv")

project2 <- project1 %>% select(-second)

project2

## # A tibble: 376 x 17
##       X1  year month day   hour  minute artistName trackName Popularity
##    <dbl> <dbl> <chr> <chr> <chr> <chr>  <chr>      <chr>          <dbl>
##  1     1  2020 10    26    16    01     Jack John Sunsets          66
##  2     2  2020 10    26    16    15     Van Morri Into the         72
##  3     3  2020 10    26    16    44     John Mayer Daughters         68
##  4     4  2020 10    26    16    56     Norah Jon Carry On          64
##  5     5  2020 10    26    20    50     Sixpence  Kiss Me           76
##  6     6  2020 10    26    21    56     Ritt Momn Put Your         85
##  7     7  2020 10    27    22    35     Ritt Momn Put Your         85
##  8     8  2020 10    28    20    24     Sixpence  Kiss Me           76
##  9     9  2020 10    28    21    15     Van Morri Into the         72
## 10    10  2020 10    28    21    19     Van Morri Into the         72
## #  with 366 more rows, and 8 more variables: danceability <dbl>, energy <dbl>,
## #   acousticness <dbl>, instrumentalness <dbl>, tempo <dbl>, hype <dbl>,
## #   mean_tempo <dbl>, mean_hype <dbl>
…
